<?xml version="1.0" standalone="no"?>
<!DOCTYPE svg PUBLIC "-//W3C//DTD SVG 1.1//EN" "http://www.w3.org/Graphics/SVG/1.1/DTD/svg11.dtd" >
<svg xmlns="http://www.w3.org/2000/svg">
<metadata>Generated by IcoMoon</metadata>
<defs>
<font id="icomoon" horiz-adv-x="1024">
<font-face units-per-em="1024" ascent="960" descent="-64" />
<missing-glyph horiz-adv-x="1024" />
<glyph unicode="&#x20;" horiz-adv-x="512" d="" />
<glyph unicode="&#xe900;" glyph-name="placeholder-1" d="M512 960c-198.504 0-360-161.496-360-360 0-67.068 18.578-132.52 53.738-189.304l285.77-460.514c5.474-8.822 15.118-14.182 25.49-14.182 0.080 0 0.158 0 0.238 0 10.462 0.082 20.126 5.608 25.5 14.584l278.486 464.976c33.22 55.584 50.778 119.362 50.778 184.44 0 198.504-161.496 360-360 360zM769.732 446.364l-253.188-422.736-259.81 418.68c-29.266 47.264-45.134 101.792-45.134 157.692 0 165.42 134.98 300.4 300.4 300.4s300.2-134.98 300.2-300.4c0-54.242-14.822-107.376-42.468-153.636zM512 780c-99.252 0-180-80.748-180-180 0-98.618 79.434-180 180-180 101.806 0 180 82.466 180 180 0 99.252-80.748 180-180 180zM512 479.6c-66.514 0-120.4 54.066-120.4 120.4 0 66.168 54.232 120.4 120.4 120.4s120.2-54.232 120.2-120.4c0-65.366-52.632-120.4-120.2-120.4z" />
<glyph unicode="&#xe901;" glyph-name="placeholder" d="M512 516.267c65.877 0 119.467 53.606 119.467 119.467s-53.589 119.467-119.467 119.467-119.467-53.606-119.467-119.467 53.589-119.467 119.467-119.467zM512 721.067c47.053 0 85.333-38.281 85.333-85.333s-38.281-85.333-85.333-85.333-85.333 38.281-85.333 85.333 38.281 85.333 85.333 85.333zM508.979 25.481l261.82 378.146c98.202 130.918 84.002 346.112-30.396 460.493-61.815 61.833-144.009 95.881-231.424 95.881s-169.609-34.048-231.424-95.863c-114.398-114.381-128.597-329.574-30.788-459.981l262.212-378.675zM301.687 840.004c55.381 55.364 128.99 85.862 207.292 85.862s151.91-30.498 207.292-85.862c103.253-103.236 115.968-297.591 26.846-416.41l-234.138-338.142-234.513 338.654c-88.747 118.306-76.015 312.661 27.221 415.898zM718.797 226.014c-9.387 1.143-17.852-5.581-18.944-14.95s5.598-17.852 14.95-18.944c179.473-21.129 275.063-78.063 275.063-111.053 0-46.319-181.794-110.933-477.867-110.933s-477.867 64.614-477.867 110.933c0 32.99 95.59 89.924 275.063 111.053 9.353 1.092 16.043 9.591 14.95 18.944-1.109 9.37-9.574 16.128-18.944 14.95-179.695-21.163-305.203-80.759-305.203-144.947 0-72.090 175.872-145.067 512-145.067s512 72.977 512 145.067c0 64.188-125.508 123.785-305.203 144.947z" />
<glyph unicode="&#xe902;" glyph-name="phone-call" d="M809.283 325.668c-20.964 21.828-46.25 33.499-73.049 33.499-26.583 0-52.085-11.454-73.914-33.283l-68.295-68.078c-5.619 3.026-11.238 5.835-16.641 8.645-7.78 3.89-15.129 7.564-21.396 11.454-63.972 40.631-122.109 93.581-177.869 162.092-27.015 34.147-45.17 62.892-58.353 92.068 17.722 16.209 34.147 33.067 50.14 49.276 6.051 6.051 12.103 12.319 18.154 18.37 45.386 45.386 45.386 104.171 0 149.557l-59.001 59.001c-6.7 6.7-13.616 13.616-20.099 20.532-12.967 13.4-26.583 27.231-40.631 40.199-20.964 20.748-46.034 31.77-72.401 31.77s-51.869-11.022-73.482-31.77c-0.216-0.216-0.216-0.216-0.432-0.432l-73.482-74.13c-27.664-27.664-43.441-61.379-46.899-100.497-5.187-63.108 13.4-121.893 27.664-160.363 35.012-94.445 87.313-181.975 165.333-275.772 94.662-113.032 208.558-202.29 338.664-265.182 49.708-23.557 116.058-51.437 190.188-56.192 4.539-0.216 9.293-0.432 13.616-0.432 49.924 0 91.852 17.938 124.703 53.598 0.216 0.432 0.648 0.648 0.864 1.081 11.238 13.616 24.206 25.935 37.821 39.118 9.293 8.861 18.803 18.154 28.096 27.88 21.396 22.261 32.634 48.195 32.634 74.778 0 26.799-11.454 52.518-33.283 74.13l-118.651 119.083zM886.654 98.092c-0.216 0-0.216-0.216 0 0-8.429-9.077-17.074-17.29-26.367-26.367-14.048-13.4-28.312-27.448-41.712-43.224-21.828-23.341-47.547-34.363-81.262-34.363-3.242 0-6.7 0-9.942 0.216-64.188 4.106-123.838 29.176-168.575 50.573-122.325 59.217-229.738 143.289-318.996 249.837-73.698 88.826-122.974 170.953-155.608 259.131-20.099 53.814-27.448 95.742-24.206 135.293 2.161 25.286 11.887 46.25 29.825 64.188l73.698 73.698c10.59 9.942 21.828 15.345 32.851 15.345 13.616 0 24.638-8.213 31.554-15.129 0.216-0.216 0.432-0.432 0.648-0.648 13.183-12.319 25.719-25.070 38.902-38.686 6.7-6.916 13.616-13.832 20.532-20.964l59.001-59.001c22.909-22.909 22.909-44.089 0-66.998-6.268-6.268-12.319-12.535-18.587-18.587-18.154-18.587-35.444-35.876-54.247-52.734-0.432-0.432-0.864-0.648-1.081-1.081-18.587-18.587-15.129-36.741-11.238-49.060 0.216-0.648 0.432-1.297 0.648-1.945 15.345-37.173 36.957-72.185 69.807-113.896l0.216-0.216c59.65-73.482 122.541-130.754 191.917-174.627 8.861-5.619 17.938-10.158 26.583-14.48 7.78-3.89 15.129-7.564 21.396-11.454 0.864-0.432 1.729-1.081 2.593-1.513 7.348-3.674 14.264-5.403 21.396-5.403 17.938 0 29.176 11.238 32.851 14.912l73.914 73.914c7.348 7.348 19.019 16.209 32.634 16.209 13.4 0 24.422-8.429 31.122-15.777 0.216-0.216 0.216-0.216 0.432-0.432l119.083-119.083c22.261-22.044 22.261-44.737 0.216-67.646zM553.394 716.417c56.624-9.509 108.061-36.309 149.124-77.372s67.646-92.5 77.372-149.124c2.377-14.264 14.696-24.206 28.744-24.206 1.729 0 3.242 0.216 4.971 0.432 15.993 2.593 26.583 17.722 23.99 33.715-11.671 68.511-44.089 130.97-93.581 180.462s-111.951 81.91-180.462 93.581c-15.993 2.593-30.905-7.997-33.715-23.773s7.564-31.122 23.557-33.715zM1022.811 508.292c-19.235 112.816-72.401 215.474-154.095 297.168s-184.352 134.86-297.168 154.095c-15.777 2.81-30.689-7.997-33.499-23.773-2.593-15.993 7.997-30.905 23.99-33.715 100.713-17.074 192.565-64.837 265.614-137.67 73.049-73.049 120.596-164.901 137.67-265.614 2.377-14.264 14.696-24.206 28.744-24.206 1.729 0 3.242 0.216 4.971 0.432 15.777 2.377 26.583 17.506 23.773 33.283z" />
<glyph unicode="&#xe903;" glyph-name="telephone" d="M778.514 282.604c-33.454 33.028-75.219 33.028-108.46 0-25.357-25.144-50.714-50.288-75.645-75.858-6.819-7.032-12.572-8.523-20.882-3.836-16.408 8.95-33.88 16.194-49.649 25.996-73.514 46.239-135.096 105.69-189.645 172.599-27.062 33.241-51.14 68.826-67.974 108.886-3.409 8.097-2.77 13.424 3.836 20.030 25.357 24.505 50.075 49.649 75.006 74.793 34.733 34.946 34.733 75.858-0.213 111.017-19.817 20.030-39.634 39.634-59.451 59.664-20.456 20.456-40.699 41.125-61.368 61.368-33.454 32.602-75.219 32.602-108.46-0.213-25.57-25.144-50.075-50.927-76.071-75.645-24.079-22.8-36.224-50.714-38.781-83.316-4.049-53.058 8.95-103.133 27.275-151.929 37.503-101.002 94.61-190.711 163.862-272.962 93.544-111.23 205.201-199.234 335.822-262.733 58.811-28.553 119.754-50.501 186.023-54.124 45.6-2.557 85.234 8.95 116.984 44.535 21.735 24.292 46.239 46.452 69.253 69.679 34.094 34.52 34.307 76.284 0.426 110.378-40.486 40.699-81.185 81.185-121.884 121.671zM737.814 452.432l78.628 13.424c-12.359 72.236-46.452 137.653-98.232 189.645-54.763 54.763-124.015 89.283-200.3 99.937l-11.080-79.054c59.024-8.31 112.722-34.946 155.126-77.35 40.060-40.060 66.269-90.774 75.858-146.602zM860.764 794.22c-90.774 90.774-205.627 148.094-332.412 165.78l-11.080-79.054c109.526-15.342 208.823-64.991 287.238-143.193 74.367-74.367 123.163-168.337 140.849-271.683l78.628 13.424c-20.669 119.754-77.137 228.427-163.223 314.726z" />
<glyph unicode="&#xe904;" glyph-name="facebook-placeholder-for-locate-places-on-maps" d="M848.047 705.137c-3.645 13.661-11.047 28.217-16.523 40.961-65.523 157.469-208.691 213.902-324.291 213.902-154.752 0-325.193-103.768-347.949-317.658v-43.699c0-1.824 0.629-18.206 1.521-26.4 12.756-101.935 93.19-210.269 153.262-312.204 64.628-109.213 131.69-216.647 198.13-324.036 40.968 70.080 81.789 141.082 121.824 209.348 10.911 20.034 23.577 40.056 34.5 59.179 7.28 12.732 21.189 25.465 27.543 37.311 64.626 118.322 168.649 237.557 168.649 354.981v48.239c0.002 12.73-15.777 57.331-16.665 60.076zM510.067 485.768c-45.489 0-95.281 22.746-119.857 85.562-3.662 9.999-3.366 30.038-3.366 31.874v28.217c0 80.079 67.995 116.496 127.147 116.496 72.823 0 129.145-58.262 129.145-131.085 0-72.82-60.245-131.063-133.068-131.063z" />
<glyph unicode="&#xe905;" glyph-name="sent-mail" d="M1018.787 918.063c-4.558 3.998-11.045 4.926-16.543 2.376l-993.387-461.556c-5.348-2.486-8.792-7.822-8.856-13.718s3.266-11.305 8.562-13.904l281.127-137.966c5.155-2.532 11.302-1.959 15.906 1.482l273.333 204.292-214.578-220.719c-3.061-3.15-4.623-7.463-4.286-11.841l21.365-278.237c0.474-6.165 4.607-11.437 10.482-13.369 1.57-0.514 3.184-0.765 4.779-0.765 4.375 0 8.63 1.877 11.59 5.305l149.213 172.908 184.458-88.134c4.004-1.913 8.639-1.993 12.707-0.223 4.068 1.772 7.166 5.219 8.495 9.45l260.142 828.528c1.818 5.786 0.046 12.095-4.509 16.093z" />
<glyph unicode="&#xe906;" glyph-name="clock-circular-outline" d="M512 960c-282.317 0-512-229.683-512-512s229.683-512 512-512 512 229.683 512 512-229.683 512-512 512zM512 44.945c-222.243 0-403.066 180.802-403.066 403.055s180.823 403.055 403.066 403.055 403.066-180.802 403.066-403.055-180.823-403.055-403.066-403.055zM778.834 463.809h-230.094v276.657c0 23.281-18.876 42.157-42.157 42.157s-42.157-18.876-42.157-42.157v-318.814c0-23.281 18.876-42.157 42.157-42.157h272.252c23.281 0 42.157 18.876 42.157 42.157s-18.876 42.157-42.157 42.157z" />
<glyph unicode="&#xe907;" glyph-name="group-profile-users" d="M204.8 652.798c37.695 0 69.868 13.328 96.529 39.997 26.67 26.666 40.006 58.849 40.006 96.536 0 37.684-13.336 69.866-40.006 96.536-26.661 26.666-58.836 40.002-96.529 40.002-37.691 0-69.866-13.336-96.533-40.002-26.664-26.67-40-58.845-40-96.536 0-37.695 13.336-69.87 40-96.536 26.666-26.661 58.841-39.997 96.533-39.997zM367.198 439.716c40-39.987 88.261-59.99 144.803-59.99 56.544 0 104.802 20.003 144.801 59.99 39.993 40.013 59.996 88.28 59.996 144.81 0 56.534-20.003 104.799-59.996 144.801-39.998 40.002-88.257 60.003-144.801 60.003-56.542 0-104.806-20.005-144.803-60.003s-60.001-88.261-60.001-144.801 20.005-104.802 60.001-144.81zM819.215 652.798c37.678 0 69.859 13.328 96.523 39.997 26.664 26.666 39.993 58.849 39.993 96.536 0 37.684-13.328 69.866-39.993 96.536-26.662 26.666-58.845 40.002-96.523 40.002-37.704 0-69.878-13.336-96.544-40.002-26.659-26.67-39.993-58.845-39.993-96.536 0-37.695 13.336-69.87 39.993-96.536 26.666-26.661 58.839-39.997 96.544-39.997zM957.86 652.79c-2.122 0-9.856-3.734-23.192-11.201-13.323-7.47-30.666-15.026-51.993-22.672-21.326-7.638-42.492-11.462-63.461-11.462-23.832 0-47.459 4.085-70.935 12.267 1.765-13.149 2.66-24.886 2.66-35.198 0-49.423-14.403-94.932-43.215-136.533 57.612-1.784 104.715-24.535 141.351-68.28h71.464c29.151 0 53.686 7.216 73.593 21.613 19.908 14.389 29.868 35.467 29.868 63.196 0.006 125.521-22.030 188.278-66.14 188.27zM878.157 221.595c-3.734 20.802-8.451 40.096-14.141 57.868-5.69 17.786-13.336 35.108-22.923 51.999-9.604 16.876-20.631 31.286-33.075 43.202-12.454 11.916-27.656 21.415-45.606 28.536-17.95 7.11-37.781 10.663-59.465 10.663-3.56 0-11.201-3.824-22.936-11.47-11.737-7.638-24.703-16.187-38.932-25.596-14.225-9.409-33.231-17.95-57.069-25.596-23.84-7.646-47.837-11.47-72.002-11.47-24.174 0-48.179 3.824-72.002 11.47-23.829 7.646-42.845 16.187-57.069 25.596-14.227 9.409-27.2 17.957-38.932 25.596-11.737 7.646-19.377 11.47-22.938 11.47-21.686 0-41.508-3.553-59.465-10.663-17.957-7.121-33.156-16.62-45.599-28.536-12.454-11.903-23.466-26.326-33.074-43.202-9.596-16.891-17.24-34.213-22.93-51.999-5.688-17.773-10.394-37.066-14.134-57.868-3.736-20.802-6.222-40.172-7.467-58.135-1.246-17.957-1.866-36.363-1.866-55.208 0-42.658 12.974-76.354 38.928-101.057 25.964-24.701 60.455-37.066 103.469-37.066h466.141c43.017 0 77.505 12.365 103.474 37.066 25.955 24.703 38.932 58.399 38.932 101.057 0 18.845-0.626 37.245-1.853 55.208-1.263 17.963-3.749 37.335-7.468 58.135zM316.264 447.993c-28.801 41.601-43.198 87.11-43.193 136.533 0 10.312 0.891 22.041 2.666 35.198-23.47-8.176-47.114-12.267-70.937-12.267-20.978 0-42.128 3.822-63.465 11.462-21.327 7.646-38.666 15.202-51.995 22.672-13.334 7.467-21.073 11.201-23.205 11.201-44.091-0.002-66.136-62.759-66.136-188.27 0-27.729 9.957-48.806 29.864-63.196 19.913-14.397 44.448-21.6 73.595-21.6h71.471c36.627 43.733 83.731 66.485 141.334 68.267z" />
<glyph unicode="&#xe908;" glyph-name="wallet-filled-money-tool" d="M239.297 752.371l408.22 111.427-21.618 43.697c-14.144 28.403-48.641 40.132-77.044 25.988l-365.443-181.112h55.886zM774.238 860.578c-5.058 0-10.119-0.69-15.179-2.070l-388.787-106.137h477.33l-17.939 65.775c-6.899 25.643-30.128 42.432-55.426 42.432zM907.514 712.124h-849.903c-18.169 0-34.382-8.394-44.962-21.618-4.83-6.095-8.509-13.109-10.579-20.813-1.265-4.83-2.070-9.889-2.070-15.064v-640.618c0-31.739 25.758-57.496 57.496-57.496h849.903c31.739 0 57.496 25.757 57.496 57.496v160.413h-341.18c-53.931 0-97.743 43.812-97.743 97.743v127.871c0 26.448 10.578 50.48 27.713 68.074 15.179 15.64 35.532 26.219 58.301 28.864 3.795 0.459 7.704 0.69 11.614 0.69h341.295v156.964c0.115 31.738-25.643 57.496-57.381 57.496zM1005.256 442.699c-5.75 5.29-12.534 9.314-20.124 11.959-5.866 1.954-12.074 3.104-18.629 3.104h-342.79c-31.739 0-57.496-25.757-57.496-57.496v-127.984c0-31.738 25.757-57.496 57.496-57.496h342.79c6.555 0 12.764 1.15 18.629 3.105 7.589 2.53 14.374 6.67 20.124 11.959 11.499 10.464 18.744 25.643 18.744 42.431v127.986c0 16.79-7.244 31.97-18.744 42.433zM743.766 324.833c0-15.869-12.879-28.748-28.748-28.748h-19.089c-15.869 0-28.748 12.879-28.748 28.748v19.089c0 9.199 4.255 17.365 11.039 22.539 4.945 3.795 11.040 6.208 17.709 6.208h19.089c15.869 0 28.748-12.878 28.748-28.748v-19.089z" />
</font></defs></svg>